{
  "local": {
    "host": "localhost",
    "saltRounds": 14,
    "key": "ZVD745ucY9XDcNZ2",
    "recaptchaSecret":  "6LcEBbAUAAAAAAIIm6GnunzwiruKxfMKyCwCnr_T",
    "defaultPassword": "123qweasdQWE!@#",
    "cookie":{
      "secret": "10928ewj8329weq09sfjid39qwe0uh",  
      "tokenName": "ams-local"
    },
    "email": {
      "fromEmail": "AMAST Sales <support@amast.com.my>",
      "authEmail": "firebase@amast.com.my",
      "clientId": "972089620160-dalqeffe8ll8h84dt4bmndoq099evfqu.apps.googleusercontent.com",
      "clientSecret": "TPeRFDcsoP-cGc2PVnQZUA5b",
      "redirectUrl": "https://developers.google.com/oauthplayground",
      "refreshToken": "1//04-JCO-_cwT10CgYIARAAGAQSNwF-L9IrVmcw35EsEn85SvJN8y12SbhvJw_DQibW1kN16bXRSxQ_r6tkjBS8-DzKHtbVHu3V6bw",
      "accessToken": "ya29.a0AfH6SMDzWHEYBs-IVwZkKdvK8FGLC4SfhvatcNhDbb_hbYC7Aq2IuM4iSoLuI2RWa6a-8PN0foCfu0_n6hUGP9sm4Oj18L2hJnqEwIVGwJQ136AMu0lB3nikwXKYqelFMbygjXuKnns1-X-pCSO8dKMhtW0bb9zJoqFQQ4TXsQg"
    },
    "reportServer": {
      "host": "13.229.206.61",
      "port": 8080,
      "user": "jasperadmin",
      "pass": "iAm$upremeN0rturer"
    },
    "db": {
      "host": "18.138.58.72",
      "port": 5432,
      "user": "postgres",
      "pass": "thisisalongpasswordverysafeverysafe",
      "name": "ams"
    }
  },
  "dev": {
    "host": "testbe.amastsales.com",
    "saltRounds": 14,
    "key": "ZVD745ucY9XDcNZ2",
    "defaultPassword": "123qweasdQWE!@#",
    "recaptchaSecret":  "6LcEBbAUAAAAAAIIm6GnunzwiruKxfMKyCwCnr_T",
    "email": {
      "fromEmail": "AMAST Sales <support@amast.com.my>",
      "authEmail": "firebase@amast.com.my",
      "clientId": "972089620160-dalqeffe8ll8h84dt4bmndoq099evfqu.apps.googleusercontent.com",
      "clientSecret": "TPeRFDcsoP-cGc2PVnQZUA5b",
      "redirectUrl": "https://developers.google.com/oauthplayground",
      "refreshToken": "1//04-JCO-_cwT10CgYIARAAGAQSNwF-L9IrVmcw35EsEn85SvJN8y12SbhvJw_DQibW1kN16bXRSxQ_r6tkjBS8-DzKHtbVHu3V6bw",
      "accessToken": "ya29.a0AfH6SMDzWHEYBs-IVwZkKdvK8FGLC4SfhvatcNhDbb_hbYC7Aq2IuM4iSoLuI2RWa6a-8PN0foCfu0_n6hUGP9sm4Oj18L2hJnqEwIVGwJQ136AMu0lB3nikwXKYqelFMbygjXuKnns1-X-pCSO8dKMhtW0bb9zJoqFQQ4TXsQg"
    },
    "cookie":{
      "secret": "10928ewj8329weq09sfjid39qwe0uh",
      "tokenName": "ams-dev"
    },
    "reportServer": {
      "host": "172.26.8.247",
      "port": 8080,
      "user": "jasperadmin",
      "pass": "iAm$upremeN0rturer"
    },
    "db": {
      "host": "18.138.58.72",
      "port": 5432,
      "user": "postgres",
      "pass": "thisisalongpasswordverysafeverysafe",
      "name": "ams"
    }
  }
}