<?xml version="1.0" encoding="UTF-8" standalone="no"?>
<svg
   xmlns:dc="http://purl.org/dc/elements/1.1/"
   xmlns:cc="http://creativecommons.org/ns#"
   xmlns:rdf="http://www.w3.org/1999/02/22-rdf-syntax-ns#"
   xmlns:svg="http://www.w3.org/2000/svg"
   xmlns="http://www.w3.org/2000/svg"
   xmlns:sodipodi="http://sodipodi.sourceforge.net/DTD/sodipodi-0.dtd"
   xmlns:inkscape="http://www.inkscape.org/namespaces/inkscape"
   height="300px"
   width="300px"
   fill="#01b1ed"
   viewBox="0 0 100 100"
   version="1.1"
   x="0px"
   y="0px"
   id="svg12"
   sodipodi:docname="create.svg"
   inkscape:version="0.92.4 (5da689c313, 2019-01-14)">
  <metadata
     id="metadata18">
    <rdf:RDF>
      <cc:Work
         rdf:about="">
        <dc:format>image/svg+xml</dc:format>
        <dc:type
           rdf:resource="http://purl.org/dc/dcmitype/StillImage" />
      </cc:Work>
    </rdf:RDF>
  </metadata>
  <defs
     id="defs16" />
  <sodipodi:namedview
     pagecolor="#ffffff"
     bordercolor="#666666"
     borderopacity="1"
     objecttolerance="10"
     gridtolerance="10"
     guidetolerance="10"
     inkscape:pageopacity="0"
     inkscape:pageshadow="2"
     inkscape:window-width="1920"
     inkscape:window-height="1001"
     id="namedview14"
     showgrid="false"
     inkscape:zoom="0.78666667"
     inkscape:cx="150"
     inkscape:cy="150"
     inkscape:window-x="-9"
     inkscape:window-y="-9"
     inkscape:window-maximized="1"
     inkscape:current-layer="svg12" />
  <title
     id="title2">10.6</title>
  <desc
     id="desc4">Created with Sketch.</desc>
  <g
     id="g10"
     style="fill:none;fill-rule:evenodd;stroke:none;stroke-width:1"
     transform="matrix(1.7857143,0,0,1.7857143,-39.285715,-39.285715)">
    <g
       id="g8"
       style="fill:#01b1ed">
      <path
         d="M 50,78 C 34.536027,78 22,65.463973 22,50 22,34.536027 34.536027,22 50,22 65.463973,22 78,34.536027 78,50 78,65.463973 65.463973,78 50,78 Z M 46.5,47 H 34 c -0.552285,0 -1,0.447715 -1,1 v 4 c 0,0.552285 0.447715,1 1,1 h 12.5 c 0.276142,0 0.5,0.223858 0.5,0.5 V 66 c 0,0.552285 0.447715,1 1,1 h 4 c 0.552285,0 1,-0.447715 1,-1 V 53.5 C 53,53.223858 53.223858,53 53.5,53 H 66 c 0.552285,0 1,-0.447715 1,-1 v -4 c 0,-0.552285 -0.447715,-1 -1,-1 H 53.5 C 53.223858,47 53,46.776142 53,46.5 V 34 c 0,-0.552285 -0.447715,-1 -1,-1 h -4 c -0.552285,0 -1,0.447715 -1,1 v 12.5 c 0,0.276142 -0.223858,0.5 -0.5,0.5 z"
         id="path6"
         inkscape:connector-curvature="0" />
    </g>
  </g>
</svg>
