<?xml version="1.0" encoding="UTF-8" standalone="no"?>
<svg
   xmlns:dc="http://purl.org/dc/elements/1.1/"
   xmlns:cc="http://creativecommons.org/ns#"
   xmlns:rdf="http://www.w3.org/1999/02/22-rdf-syntax-ns#"
   xmlns:svg="http://www.w3.org/2000/svg"
   xmlns="http://www.w3.org/2000/svg"
   xmlns:sodipodi="http://sodipodi.sourceforge.net/DTD/sodipodi-0.dtd"
   xmlns:inkscape="http://www.inkscape.org/namespaces/inkscape"
   height="300px"
   width="300px"
   fill="#000000"
   version="1.1"
   x="0px"
   y="0px"
   viewBox="0 0 50 50"
   style="enable-background:new 0 0 50 50;"
   xml:space="preserve"
   id="svg6"
   sodipodi:docname="member.svg"
   inkscape:version="0.92.4 (5da689c313, 2019-01-14)"><metadata
     id="metadata12"><rdf:RDF><cc:Work
         rdf:about=""><dc:format>image/svg+xml</dc:format><dc:type
           rdf:resource="http://purl.org/dc/dcmitype/StillImage" /><dc:title></dc:title></cc:Work></rdf:RDF></metadata><defs
     id="defs10" /><sodipodi:namedview
     pagecolor="#ffffff"
     bordercolor="#666666"
     borderopacity="1"
     objecttolerance="10"
     gridtolerance="10"
     guidetolerance="10"
     inkscape:pageopacity="0"
     inkscape:pageshadow="2"
     inkscape:window-width="1920"
     inkscape:window-height="1001"
     id="namedview8"
     showgrid="false"
     inkscape:zoom="0.78666667"
     inkscape:cx="-74.999999"
     inkscape:cy="150"
     inkscape:window-x="-9"
     inkscape:window-y="-9"
     inkscape:window-maximized="1"
     inkscape:current-layer="svg6" /><circle
     style="opacity:1;fill:#ffffff;fill-opacity:1;fill-rule:nonzero;stroke-width:0.16666667"
     id="path820"
     cx="25"
     cy="25"
     r="24.666666" /><g
     id="g4"
     transform="matrix(1.0416667,0,0,1.0416667,-1.0416675,-1.0416675)"
     style="display:inline"><path
       d="M 25,1 C 11.767,1 1,11.767 1,25 1,32.091 4.094,38.472 9,42.869 v 0.017 l 0.348,0.3 c 0.061,0.053 0.128,0.097 0.19,0.149 0.431,0.364 0.875,0.713 1.331,1.047 0.123,0.09 0.246,0.177 0.371,0.264 0.484,0.34 0.979,0.664 1.487,0.968 0.085,0.051 0.172,0.099 0.257,0.148 0.557,0.324 1.126,0.629 1.71,0.908 0.006,0.003 0.012,0.005 0.018,0.008 1.249,0.595 2.559,1.082 3.915,1.456 0.025,0.007 0.05,0.015 0.075,0.021 0.641,0.175 1.293,0.322 1.954,0.443 0.062,0.011 0.123,0.022 0.185,0.033 0.638,0.112 1.284,0.201 1.939,0.262 0.075,0.007 0.15,0.011 0.224,0.017 0.659,0.055 1.323,0.09 1.996,0.09 0.673,0 1.337,-0.035 1.996,-0.09 0.075,-0.006 0.15,-0.01 0.224,-0.017 0.655,-0.06 1.301,-0.15 1.939,-0.262 0.062,-0.011 0.123,-0.022 0.185,-0.033 0.661,-0.121 1.313,-0.268 1.954,-0.443 0.025,-0.007 0.05,-0.014 0.075,-0.021 1.356,-0.374 2.666,-0.861 3.915,-1.456 0.006,-0.003 0.012,-0.005 0.018,-0.008 0.584,-0.279 1.153,-0.585 1.71,-0.908 0.086,-0.05 0.172,-0.097 0.257,-0.148 0.509,-0.304 1.004,-0.629 1.487,-0.968 0.124,-0.087 0.248,-0.174 0.371,-0.264 0.456,-0.334 0.9,-0.683 1.331,-1.047 0.062,-0.052 0.129,-0.096 0.19,-0.149 L 41,42.886 V 42.869 C 45.906,38.471 49,32.091 49,25 49,11.767 38.233,1 25,1 Z m 0,24 c -4.411,0 -8,-3.589 -8,-8 0,-4.411 3.589,-8 8,-8 4.411,0 8,3.589 8,8 0,4.411 -3.589,8 -8,8 z m 3,2 c 6.065,0 11,4.935 11,11 v 3.958 c -0.042,0.035 -0.086,0.067 -0.128,0.102 -0.395,0.321 -0.8,0.626 -1.214,0.918 -0.092,0.065 -0.182,0.132 -0.274,0.195 -0.447,0.305 -0.906,0.591 -1.373,0.862 -0.085,0.05 -0.171,0.099 -0.257,0.148 -0.49,0.275 -0.989,0.533 -1.498,0.769 -0.053,0.025 -0.107,0.049 -0.161,0.073 -1.661,0.755 -3.411,1.302 -5.212,1.626 -0.057,0.01 -0.114,0.021 -0.171,0.031 -0.567,0.097 -1.139,0.172 -1.715,0.225 -0.079,0.007 -0.159,0.012 -0.239,0.018 C 26.175,46.97 25.589,47 25,47 24.411,47 23.825,46.97 23.242,46.923 23.163,46.917 23.083,46.912 23.003,46.905 22.427,46.852 21.855,46.778 21.288,46.68 21.231,46.67 21.174,46.66 21.117,46.649 19.316,46.325 17.566,45.778 15.905,45.023 15.851,44.998 15.797,44.975 15.744,44.95 15.235,44.714 14.736,44.456 14.246,44.181 14.16,44.132 14.075,44.083 13.989,44.033 13.522,43.763 13.063,43.476 12.616,43.171 12.523,43.108 12.433,43.041 12.342,42.976 11.928,42.684 11.523,42.38 11.128,42.058 11.086,42.024 11.042,41.991 11,41.956 V 38 C 11,31.935 15.935,27 22,27 Z M 41,40.076 V 38 C 41,31.729 36.536,26.481 30.62,25.265 33.261,23.464 35,20.431 35,17 35,11.486 30.514,7 25,7 19.486,7 15,11.486 15,17 c 0,3.431 1.739,6.464 4.38,8.265 C 13.464,26.481 9,31.729 9,38 v 2.076 C 5.284,36.135 3,30.831 3,25 3,12.869 12.869,3 25,3 c 12.131,0 22,9.869 22,22 0,5.831 -2.284,11.135 -6,15.076 z"
       id="path2"
       inkscape:connector-curvature="0" /></g></svg>