<?xml version="1.0" encoding="UTF-8" standalone="no"?>
<svg
   xmlns:dc="http://purl.org/dc/elements/1.1/"
   xmlns:cc="http://creativecommons.org/ns#"
   xmlns:rdf="http://www.w3.org/1999/02/22-rdf-syntax-ns#"
   xmlns:svg="http://www.w3.org/2000/svg"
   xmlns="http://www.w3.org/2000/svg"
   xmlns:sodipodi="http://sodipodi.sourceforge.net/DTD/sodipodi-0.dtd"
   xmlns:inkscape="http://www.inkscape.org/namespaces/inkscape"
   height="300px"
   width="300px"
   fill="#000000"
   viewBox="0 0 64 64"
   x="0px"
   y="0px"
   version="1.1"
   id="svg8"
   sodipodi:docname="receipt.svg"
   inkscape:version="0.92.4 (5da689c313, 2019-01-14)">
  <metadata
     id="metadata14">
    <rdf:RDF>
      <cc:Work
         rdf:about="">
        <dc:format>image/svg+xml</dc:format>
        <dc:type
           rdf:resource="http://purl.org/dc/dcmitype/StillImage" />
      </cc:Work>
    </rdf:RDF>
  </metadata>
  <defs
     id="defs12" />
  <sodipodi:namedview
     pagecolor="#ffffff"
     bordercolor="#666666"
     borderopacity="1"
     objecttolerance="10"
     gridtolerance="10"
     guidetolerance="10"
     inkscape:pageopacity="0"
     inkscape:pageshadow="2"
     inkscape:window-width="1366"
     inkscape:window-height="705"
     id="namedview10"
     showgrid="false"
     showguides="true"
     inkscape:guide-bbox="true"
     inkscape:zoom="0.78666667"
     inkscape:cx="-127.05625"
     inkscape:cy="123.43556"
     inkscape:window-x="-8"
     inkscape:window-y="-8"
     inkscape:window-maximized="1"
     inkscape:current-layer="svg8">
    <sodipodi:guide
       position="16.874684,69.224555"
       orientation="1,0"
       id="guide4528"
       inkscape:locked="false" />
    <sodipodi:guide
       position="52.733387,73.059711"
       orientation="1,0"
       id="guide4530"
       inkscape:locked="false" />
    <sodipodi:guide
       position="34.899914,93.961308"
       orientation="1,0"
       id="guide4532"
       inkscape:locked="false" />
    <sodipodi:guide
       position="29.559322,46.915254"
       orientation="0,1"
       id="guide4534"
       inkscape:locked="false" />
  </sodipodi:namedview>
  <title
     id="title2">invoice, bill, receipt, shopping, sale</title>
  <g
     data-name="Invoice biil"
     id="g6">
    <path
       d="M 9.586667,0 C 7.3785557,0.00247994 5.5891466,1.791889 5.5866667,4 v 33 c 0,0.552285 0.4477153,1 1,1 h 5.0000003 v 24.525391 c -7.5e-4,1.174626 0.966392,1.140729 1.724609,1.164062 h 43.375495 c 1.333804,-0.021 1.829177,-0.191206 1.726562,-1.46875 V 4 c -0.0023,-2.2081794 -1.791821,-3.99768506 -4,-4 z m 0,2 c 1,0 1.982224,0.6667857 2,2 V 36 H 7.5866667 V 4 c 0,-1.3333328 1,-2 2.0000003,-2 z m 3.462891,0 h 41.363775 c 1.104044,0.00127 1.998733,0.8959559 2,2 v 57.774141 l -42.826666,0.0039 V 4.8533333 C 13.57967,4.1520349 13.394547,2.6106152 13.049558,2 Z m 7.243776,31 c -1.333333,0 -1.333333,2 0,2 h 20.853333 c 0.552285,0 1,-0.447715 1,-1 0,-0.552285 -0.447715,-1 -1,-1 z m 27.413332,0 c -1.333333,0 -1.333333,2 0,2 h 2 c 0.552285,0 1,-0.447715 1,-1 0,-0.552285 -0.447715,-1 -1,-1 z m -27.413332,5 c -1.333333,0 -1.333333,2 0,2 h 20.853333 c 0.552285,0 1,-0.447715 1,-1 0,-0.552285 -0.447715,-1 -1,-1 z m 27.413332,0 c -1.333333,0 -1.333333,2 0,2 h 2 c 0.552285,0 1,-0.447715 1,-1 0,-0.552285 -0.447715,-1 -1,-1 z m -27.413332,5 c -1.333333,0 -1.333333,2 0,2 h 20.853333 c 0.552285,0 1,-0.447715 1,-1 0,-0.552285 -0.447715,-1 -1,-1 z m 27.413332,0 c -1.333333,0 -1.333333,2 0,2 h 2 c 0.552285,0 1,-0.447715 1,-1 0,-0.552285 -0.447715,-1 -1,-1 z m -27.413332,5 c -1.333333,0 -1.333333,2 0,2 h 20.853333 c 0.552285,0 1,-0.447715 1,-1 0,-0.552285 -0.447715,-1 -1,-1 z m 27.413332,0 c -1.333333,0 -1.333333,2 0,2 h 2 c 0.552285,0 1,-0.447715 1,-1 0,-0.552285 -0.447715,-1 -1,-1 z m -27.413332,5 c -1.333333,0 -1.333333,2 0,2 h 20.853333 c 0.552285,0 1,-0.447715 1,-1 0,-0.552285 -0.447715,-1 -1,-1 z m 27.413332,0 c -1.333333,0 -1.333333,2 0,2 h 2 c 0.552285,0 1,-0.447715 1,-1 0,-0.552285 -0.447715,-1 -1,-1 z"
       id="path4"
       inkscape:connector-curvature="0"
       sodipodi:nodetypes="ccssccccccccssccsscccccccssssssssssssssssssssssssssssssssssssssssssssssssssssssssssss" />
  </g>
  <g
     aria-label="REC"
     style="font-style:normal;font-variant:normal;font-weight:normal;font-stretch:normal;font-size:8.53333282px;line-height:1.25;font-family:Helvetica;-inkscape-font-specification:Helvetica;letter-spacing:-1.18613338px;word-spacing:0px;fill:#000000;fill-opacity:1;stroke:none;stroke-width:0.21333332"
     id="text845">
    <path
       d="m 21.428102,17.748699 h -0.924444 v 4.186667 q 0,0.826667 -0.364445,1.217778 -0.364444,0.391111 -0.951111,0.391111 -0.631111,0 -0.977778,-0.408889 -0.346666,-0.408889 -0.346666,-1.2 V 11.908699 q 0,-0.853333 0.382222,-1.235555 0.382222,-0.382222 1.235556,-0.382222 h 4.293333 q 0.888889,0 1.52,0.08 0.631111,0.07111 1.137778,0.302222 0.613333,0.257778 1.084444,0.737778 0.471111,0.48 0.711111,1.12 0.248889,0.631111 0.248889,1.342222 0,1.457778 -0.826666,2.328889 -0.817778,0.871111 -2.488889,1.235555 0.702222,0.373334 1.342222,1.102223 0.64,0.728888 1.137778,1.555555 0.506666,0.817778 0.782222,1.484445 0.284444,0.657777 0.284444,0.906666 0,0.257778 -0.168888,0.515556 -0.16,0.248889 -0.444445,0.391111 -0.284444,0.151111 -0.657778,0.151111 -0.444444,0 -0.746666,-0.213333 -0.302223,-0.204445 -0.524445,-0.524445 -0.213333,-0.32 -0.586667,-0.942222 l -1.057777,-1.76 q -0.568889,-0.968889 -1.022223,-1.475556 -0.444444,-0.506666 -0.906666,-0.693333 -0.462222,-0.186667 -1.164445,-0.186667 z m 1.511111,-5.475555 h -2.435555 v 3.582222 h 2.364444 q 0.951111,0 1.6,-0.16 0.648889,-0.168889 0.986667,-0.56 0.346667,-0.4 0.346667,-1.093333 0,-0.542223 -0.275556,-0.951111 -0.275555,-0.417778 -0.764444,-0.622223 -0.462223,-0.195555 -1.822223,-0.195555 z"
       style="font-style:normal;font-variant:normal;font-weight:normal;font-stretch:normal;font-size:18.20444489px;font-family:'Arial Rounded MT Bold';-inkscape-font-specification:'Arial Rounded MT Bold, ';letter-spacing:-1.18613338px;stroke-width:0.21333332"
       id="path847"
       inkscape:connector-curvature="0" />
    <path
       d="m 38.366414,12.326477 h -5.946667 v 3.2 h 5.475556 q 0.604444,0 0.897778,0.275556 0.302222,0.266666 0.302222,0.711111 0,0.444444 -0.293333,0.728889 -0.293334,0.275555 -0.906667,0.275555 h -5.475556 v 3.706667 h 6.151111 q 0.622223,0 0.933334,0.293333 0.32,0.284445 0.32,0.764445 0,0.462222 -0.32,0.755555 -0.311111,0.284445 -0.933334,0.284445 h -7.173333 q -0.862222,0 -1.244445,-0.382222 -0.373333,-0.382223 -0.373333,-1.235556 v -9.795556 q 0,-0.568889 0.168889,-0.924444 0.168889,-0.364445 0.524444,-0.524445 0.364445,-0.168888 0.924445,-0.168888 h 6.968889 q 0.631111,0 0.933333,0.284444 0.311111,0.275556 0.311111,0.728889 0,0.462222 -0.311111,0.746667 -0.302222,0.275555 -0.933333,0.275555 z"
       style="font-style:normal;font-variant:normal;font-weight:normal;font-stretch:normal;font-size:18.20444489px;font-family:'Arial Rounded MT Bold';-inkscape-font-specification:'Arial Rounded MT Bold, ';letter-spacing:-1.18613338px;stroke-width:0.21333332"
       id="path849"
       inkscape:connector-curvature="0" />
    <path
       d="m 51.855835,19.206477 q 0,0.622223 -0.311111,1.351111 -0.302222,0.72 -0.96,1.422223 -0.657778,0.693333 -1.68,1.128889 -1.022222,0.435555 -2.382222,0.435555 -1.031111,0 -1.875556,-0.195555 -0.844444,-0.195556 -1.537778,-0.604445 -0.684444,-0.417778 -1.262222,-1.093333 -0.515556,-0.613334 -0.88,-1.368889 -0.364444,-0.764445 -0.551111,-1.626667 -0.177778,-0.862222 -0.177778,-1.831111 0,-1.573333 0.453333,-2.817778 0.462223,-1.244444 1.315556,-2.124444 0.853333,-0.888889 2,-1.351111 1.146667,-0.462223 2.444445,-0.462223 1.582222,0 2.817777,0.631111 1.235556,0.631112 1.893334,1.564445 0.657778,0.924444 0.657778,1.751111 0,0.453333 -0.32,0.8 -0.32,0.346667 -0.773334,0.346667 -0.506666,0 -0.764444,-0.24 -0.248889,-0.24 -0.56,-0.826667 -0.515556,-0.968889 -1.217778,-1.448889 -0.693333,-0.48 -1.715556,-0.48 -1.626666,0 -2.595555,1.235556 -0.96,1.235555 -0.96,3.511111 0,1.52 0.426666,2.533333 0.426667,1.004445 1.208889,1.502223 0.782223,0.497777 1.831111,0.497777 1.137778,0 1.92,-0.56 0.791112,-0.568889 1.191112,-1.662222 0.168889,-0.515556 0.417777,-0.835556 0.248889,-0.328888 0.8,-0.328888 0.471112,0 0.808889,0.328888 0.337778,0.328889 0.337778,0.817778 z"
       style="font-style:normal;font-variant:normal;font-weight:normal;font-stretch:normal;font-size:18.20444489px;font-family:'Arial Rounded MT Bold';-inkscape-font-specification:'Arial Rounded MT Bold, ';letter-spacing:-1.18613338px;stroke-width:0.21333332"
       id="path851"
       inkscape:connector-curvature="0" />
  </g>
</svg>
