<?xml version="1.0" encoding="UTF-8" standalone="no"?>
<svg
   xmlns:dc="http://purl.org/dc/elements/1.1/"
   xmlns:cc="http://creativecommons.org/ns#"
   xmlns:rdf="http://www.w3.org/1999/02/22-rdf-syntax-ns#"
   xmlns:svg="http://www.w3.org/2000/svg"
   xmlns="http://www.w3.org/2000/svg"
   xmlns:sodipodi="http://sodipodi.sourceforge.net/DTD/sodipodi-0.dtd"
   xmlns:inkscape="http://www.inkscape.org/namespaces/inkscape"
   height="300px"
   width="300px"
   fill="#000000"
   viewBox="0 0 64 64"
   x="0px"
   y="0px"
   version="1.1"
   id="svg8"
   sodipodi:docname="returns.svg"
   inkscape:version="0.92.4 (5da689c313, 2019-01-14)">
  <metadata
     id="metadata14">
    <rdf:RDF>
      <cc:Work
         rdf:about="">
        <dc:format>image/svg+xml</dc:format>
        <dc:type
           rdf:resource="http://purl.org/dc/dcmitype/StillImage" />
      </cc:Work>
    </rdf:RDF>
  </metadata>
  <defs
     id="defs12" />
  <sodipodi:namedview
     pagecolor="#ffffff"
     bordercolor="#666666"
     borderopacity="1"
     objecttolerance="10"
     gridtolerance="10"
     guidetolerance="10"
     inkscape:pageopacity="0"
     inkscape:pageshadow="2"
     inkscape:window-width="1366"
     inkscape:window-height="705"
     id="namedview10"
     showgrid="false"
     showguides="true"
     inkscape:guide-bbox="true"
     inkscape:zoom="0.78666667"
     inkscape:cx="215.5285"
     inkscape:cy="201.59723"
     inkscape:window-x="-8"
     inkscape:window-y="-8"
     inkscape:window-maximized="1"
     inkscape:current-layer="svg8">
    <sodipodi:guide
       position="16.874684,69.224555"
       orientation="1,0"
       id="guide4528"
       inkscape:locked="false" />
    <sodipodi:guide
       position="52.733387,73.059711"
       orientation="1,0"
       id="guide4530"
       inkscape:locked="false" />
    <sodipodi:guide
       position="34.899914,93.961308"
       orientation="1,0"
       id="guide4532"
       inkscape:locked="false" />
    <sodipodi:guide
       position="29.559322,46.915254"
       orientation="0,1"
       id="guide4534"
       inkscape:locked="false" />
  </sodipodi:namedview>
  <title
     id="title2">invoice, bill, receipt, shopping, sale</title>
  <g
     data-name="Invoice biil"
     id="g6">
    <path
       d="M 9.586667,0 C 7.3785557,0.00247994 5.5891466,1.791889 5.5866667,4 v 33 c 0,0.552285 0.4477153,1 1,1 h 5.0000003 v 24.525391 c -7.5e-4,1.174626 0.966392,1.140729 1.724609,1.164062 h 43.375495 c 1.333804,-0.021 1.829177,-0.191206 1.726562,-1.46875 V 4 c -0.0023,-2.2081794 -1.791821,-3.99768506 -4,-4 z m 0,2 c 1,0 1.982224,0.6667857 2,2 V 36 H 7.5866667 V 4 c 0,-1.3333328 1,-2 2.0000003,-2 z m 3.462891,0 h 41.363775 c 1.104044,0.00127 1.998733,0.8959559 2,2 v 57.774141 l -42.826666,0.0039 V 4.8533333 C 13.57967,4.1520349 13.394547,2.6106152 13.049558,2 Z m 8.097109,31 c -1.333333,0 -1.333333,2 0,2 h 20 c 0.552285,0 1,-0.447715 1,-1 0,-0.552285 -0.447715,-1 -1,-1 z m 25.706666,0 c -1.333333,0 -1.333333,2 0,2 h 2 c 0.552285,0 1,-0.447715 1,-1 0,-0.552285 -0.447715,-1 -1,-1 z m -25.706666,5 c -1.333333,0 -1.333333,2 0,2 h 20 c 0.552285,0 1,-0.447715 1,-1 0,-0.552285 -0.447715,-1 -1,-1 z m 25.706666,0 c -1.333333,0 -1.333333,2 0,2 h 2 c 0.552285,0 1,-0.447715 1,-1 0,-0.552285 -0.447715,-1 -1,-1 z m -25.706666,5 c -1.333333,0 -1.333333,2 0,2 h 20 c 0.552285,0 1,-0.447715 1,-1 0,-0.552285 -0.447715,-1 -1,-1 z m 25.706666,0 c -1.333333,0 -1.333333,2 0,2 h 2 c 0.552285,0 1,-0.447715 1,-1 0,-0.552285 -0.447715,-1 -1,-1 z m -25.706666,5 c -1.333333,0 -1.333333,2 0,2 h 20 c 0.552285,0 1,-0.447715 1,-1 0,-0.552285 -0.447715,-1 -1,-1 z m 25.706666,0 c -1.333333,0 -1.333333,2 0,2 h 2 c 0.552285,0 1,-0.447715 1,-1 0,-0.552285 -0.447715,-1 -1,-1 z m -25.706666,5 c -1.333333,0 -1.333333,2 0,2 h 20 c 0.552285,0 1,-0.447715 1,-1 0,-0.552285 -0.447715,-1 -1,-1 z m 25.706666,0 c -1.333333,0 -1.333333,2 0,2 h 2 c 0.552285,0 1,-0.447715 1,-1 0,-0.552285 -0.447715,-1 -1,-1 z"
       id="path4"
       inkscape:connector-curvature="0"
       sodipodi:nodetypes="ccssccccccccssccsscccccccssssssssssssssssssssssssssssssssssssssssssssssssssssssssssss" />
  </g>
  <g
     aria-label="V"
     style="font-style:normal;font-variant:normal;font-weight:normal;font-stretch:normal;font-size:8.53333282px;line-height:1.25;font-family:Helvetica;-inkscape-font-specification:Helvetica;letter-spacing:0px;word-spacing:0px;fill:#000000;fill-opacity:1;stroke:none;stroke-width:0.21333332"
     id="text823">
    <path
       d="m 31.847039,12.308245 2.951111,8.737778 2.96,-8.8 q 0.231111,-0.693334 0.346667,-0.96 0.115555,-0.275556 0.382222,-0.488889 0.266667,-0.222222 0.728889,-0.222222 0.337778,0 0.622222,0.168888 0.293334,0.168889 0.453334,0.453334 0.168889,0.275555 0.168889,0.56 0,0.195555 -0.05333,0.426666 -0.05333,0.222223 -0.133333,0.444445 -0.08,0.213333 -0.16,0.444444 l -3.155556,8.515556 q -0.168889,0.488889 -0.337778,0.933333 -0.168888,0.435556 -0.391111,0.773334 -0.222222,0.328889 -0.595555,0.542222 -0.364445,0.213333 -0.897778,0.213333 -0.533333,0 -0.906667,-0.213333 Q 33.464817,23.63269 33.233706,23.294912 33.011483,22.948245 32.842595,22.51269 32.673706,22.077134 32.504817,21.588245 L 29.402594,13.1438 q -0.08,-0.231111 -0.168888,-0.453333 -0.08,-0.222222 -0.142223,-0.48 -0.05333,-0.257778 -0.05333,-0.435555 0,-0.453334 0.364444,-0.826667 0.364445,-0.373333 0.915556,-0.373333 0.675556,0 0.951111,0.417777 0.284445,0.408889 0.577778,1.315556 z"
       style="font-style:normal;font-variant:normal;font-weight:normal;font-stretch:normal;font-size:18.20444489px;font-family:'Arial Rounded MT Bold';-inkscape-font-specification:'Arial Rounded MT Bold, ';stroke-width:0.21333332"
       id="path825"
       inkscape:connector-curvature="0" />
  </g>
</svg>
