<?xml version="1.0" encoding="UTF-8" standalone="no"?>
<svg
   xmlns:dc="http://purl.org/dc/elements/1.1/"
   xmlns:cc="http://creativecommons.org/ns#"
   xmlns:rdf="http://www.w3.org/1999/02/22-rdf-syntax-ns#"
   xmlns:svg="http://www.w3.org/2000/svg"
   xmlns="http://www.w3.org/2000/svg"
   xmlns:sodipodi="http://sodipodi.sourceforge.net/DTD/sodipodi-0.dtd"
   xmlns:inkscape="http://www.inkscape.org/namespaces/inkscape"
   width="1920"
   height="112"
   viewBox="0 0 1920 112"
   fill="none"
   version="1.1"
   id="svg849"
   sodipodi:docname="wave.svg"
   inkscape:version="1.0.2 (e86c870879, 2021-01-15, custom)">
  <metadata
     id="metadata855">
    <rdf:RDF>
      <cc:Work
         rdf:about="">
        <dc:format>image/svg+xml</dc:format>
        <dc:type
           rdf:resource="http://purl.org/dc/dcmitype/StillImage" />
        <dc:title></dc:title>
      </cc:Work>
    </rdf:RDF>
  </metadata>
  <defs
     id="defs853" />
  <sodipodi:namedview
     pagecolor="#ffffff"
     bordercolor="#666666"
     borderopacity="1"
     objecttolerance="10"
     gridtolerance="10"
     guidetolerance="10"
     inkscape:pageopacity="0"
     inkscape:pageshadow="2"
     inkscape:window-width="1920"
     inkscape:window-height="1001"
     id="namedview851"
     showgrid="false"
     fit-margin-top="0"
     fit-margin-left="0"
     fit-margin-right="0"
     fit-margin-bottom="0"
     inkscape:zoom="0.70520833"
     inkscape:cx="960"
     inkscape:cy="56"
     inkscape:window-x="-9"
     inkscape:window-y="-9"
     inkscape:window-maximized="1"
     inkscape:current-layer="svg849" />
  <path
     fill-rule="evenodd"
     clip-rule="evenodd"
     d="m 0,45.4 64,8.88 c 64,8.88 192,26.64 320,22.2 C 512,72.04 640,45.4 768,27.64 896,9.88 1024,1 1152,1 c 128,0 256,8.88 384,24.42 128,15.54 256,37.74 320,48.84 l 64,11.1 V 112 h -64 c -64,0 -192,0 -320,0 -128,0 -256,0 -384,0 -128,0 -256,0 -384,0 -128,0 -256,0 -384,0 -128,0 -256,0 -320,0 H 0 Z"
     fill="#0676be"
     id="path845" />
  <path
     fill-rule="evenodd"
     clip-rule="evenodd"
     d="m 0,0 79.5,4.17052 c 81,4.17052 240,12.51158 400.5,26.62718 160.5,14.4364 319.5,34.9682 480,39.1387 160.5,4.1705 319.5,-8.341 480,-12.1907 160.5,-4.1706 319.5,0 400.5,1.9248 l 79.5,1.9249 V 111 h -79.5 c -81,0 -240,0 -400.5,0 -160.5,0 -319.5,0 -480,0 -160.5,0 -319.5,0 -480,0 -160.5,0 -319.5,0 -400.5,0 H 0 Z"
     fill="#233591"
     fill-opacity="0.8"
     id="path847" />
</svg>
